%YAML 1.1
%TAG !u! tag:unity3d.com,2011:
--- !u!1045 &1
EditorBuildSettings:
  m_ObjectHideFlags: 0
  serializedVersion: 2
  m_Scenes:
  - enabled: 1
    path: Assets/Scenes/Menu.unity
    guid: b2eb0dd806c3c9e48817e0b736924ed9
  - enabled: 1
    path: Assets/Scenes/Level.unity
    guid: d2a820aeb06b2af47b71ff7e0655895b
  m_configObjects: {}
