%YAML 1.1
%TAG !u! tag:unity3d.com,2011:
--- !u!1 &1950001250587086263
GameObject:
  m_ObjectHideFlags: 0
  m_CorrespondingSourceObject: {fileID: 0}
  m_PrefabInstance: {fileID: 0}
  m_PrefabAsset: {fileID: 0}
  serializedVersion: 6
  m_Component:
  - component: {fileID: 2098588050289748485}
  - component: {fileID: 7373113993495321428}
  - component: {fileID: 3948096820928583610}
  m_Layer: 0
  m_Name: Cherry
  m_TagString: Untagged
  m_Icon: {fileID: 0}
  m_NavMeshLayer: 0
  m_StaticEditorFlags: 0
  m_IsActive: 1
--- !u!4 &2098588050289748485
Transform:
  m_ObjectHideFlags: 0
  m_CorrespondingSourceObject: {fileID: 0}
  m_PrefabInstance: {fileID: 0}
  m_PrefabAsset: {fileID: 0}
  m_GameObject: {fileID: 1950001250587086263}
  m_LocalRotation: {x: 0, y: 0, z: 0, w: 1}
  m_LocalPosition: {x: 0, y: 0, z: 0}
  m_LocalScale: {x: 1, y: 1, z: 1}
  m_Children: []
  m_Father: {fileID: 0}
  m_RootOrder: 0
  m_LocalEulerAnglesHint: {x: 0, y: 0, z: 0}
--- !u!212 &7373113993495321428
SpriteRenderer:
  m_ObjectHideFlags: 0
  m_CorrespondingSourceObject: {fileID: 0}
  m_PrefabInstance: {fileID: 0}
  m_PrefabAsset: {fileID: 0}
  m_GameObject: {fileID: 1950001250587086263}
  m_Enabled: 1
  m_CastShadows: 0
  m_ReceiveShadows: 0
  m_DynamicOccludee: 1
  m_MotionVectors: 1
  m_LightProbeUsage: 1
  m_ReflectionProbeUsage: 1
  m_RenderingLayerMask: 1
  m_RendererPriority: 0
  m_Materials:
  - {fileID: 10754, guid: 0000000000000000f000000000000000, type: 0}
  m_StaticBatchInfo:
    firstSubMesh: 0
    subMeshCount: 0
  m_StaticBatchRoot: {fileID: 0}
  m_ProbeAnchor: {fileID: 0}
  m_LightProbeVolumeOverride: {fileID: 0}
  m_ScaleInLightmap: 1
  m_PreserveUVs: 0
  m_IgnoreNormalsForChartDetection: 0
  m_ImportantGI: 0
  m_StitchLightmapSeams: 0
  m_SelectedEditorRenderState: 0
  m_MinimumChartSize: 4
  m_AutoUVMaxDistance: 0.5
  m_AutoUVMaxAngle: 89
  m_LightmapParameters: {fileID: 0}
  m_SortingLayerID: 0
  m_SortingLayer: 0
  m_SortingOrder: 0
  m_Sprite: {fileID: 21300000, guid: cdf8dc04e015555458cd80a291ae83eb, type: 3}
  m_Color: {r: 1, g: 1, b: 1, a: 1}
  m_FlipX: 0
  m_FlipY: 0
  m_DrawMode: 0
  m_Size: {x: 0.32, y: 0.32}
  m_AdaptiveModeThreshold: 0.5
  m_SpriteTileMode: 0
  m_WasSpriteAssigned: 1
  m_MaskInteraction: 0
  m_SpriteSortPoint: 0
--- !u!114 &3948096820928583610
MonoBehaviour:
  m_ObjectHideFlags: 0
  m_CorrespondingSourceObject: {fileID: 0}
  m_PrefabInstance: {fileID: 0}
  m_PrefabAsset: {fileID: 0}
  m_GameObject: {fileID: 1950001250587086263}
  m_Enabled: 1
  m_EditorHideFlags: 0
  m_Script: {fileID: 11500000, guid: ef0afa13e88e22d44b1793eca8d58c99, type: 3}
  m_Name: 
  m_EditorClassIdentifier: 
  score: 10
  collisionRadius: 5
  fruitType:
  - sprite: {fileID: 21300000, guid: cdf8dc04e015555458cd80a291ae83eb, type: 3}
    score: 100
    level: 1
  - sprite: {fileID: 21300000, guid: 350cdcc3d75f20b4cab850176469becf, type: 3}
    score: 300
    level: 2
  - sprite: {fileID: 21300000, guid: cec9e4dc1f82f3445a48714d123dbee0, type: 3}
    score: 500
    level: 4
  - sprite: {fileID: 21300000, guid: 37cbdade8983ee240a60aa53128f5129, type: 3}
    score: 700
    level: 6
  - sprite: {fileID: 21300000, guid: dd54cd799cbf5a44b8362b950ab433e5, type: 3}
    score: 1000
    level: 8
  - sprite: {fileID: 21300000, guid: e7438067e867ce74ab3d3a8e6ebe9dd8, type: 3}
    score: 2000
    level: 10
  - sprite: {fileID: 21300000, guid: 83dbe555fa2b4494da79eafe185e5e78, type: 3}
    score: 3000
    level: 12
  - sprite: {fileID: 21300000, guid: 8c87e88a2822dac4f9a94c5dba192c64, type: 3}
    score: 5000
    level: -1
  time: 9.3
